^C:\USERS\HP\DESKTOP\PLYSI\3062_UTRPROB\SOURCE.CPP
C:\USERS\HP\DESKTOP\PLYSI\3062_UTRPROB\DEBUG\VC142.PDB
C:\USERS\HP\DESKTOP\PLYSI\3062_UTRPROB\DEBUG\VC142.IDB
C:\USERS\HP\DESKTOP\PLYSI\3062_UTRPROB\DEBUG\SOURCE.OBJ
