^C:\USERS\HP\DESKTOP\PLYSI\346_PODSCHETCHISEL\SOURCE.CPP
C:\USERS\HP\DESKTOP\PLYSI\346_PODSCHETCHISEL\DEBUG\VC142.PDB
C:\USERS\HP\DESKTOP\PLYSI\346_PODSCHETCHISEL\DEBUG\VC142.IDB
C:\USERS\HP\DESKTOP\PLYSI\346_PODSCHETCHISEL\DEBUG\SOURCE.OBJ
