^C:\USERS\HP\DESKTOP\PLYSI\348_URAVNPOVOZR\SOURCE.CPP
C:\USERS\HP\DESKTOP\PLYSI\348_URAVNPOVOZR\DEBUG\VC142.PDB
C:\USERS\HP\DESKTOP\PLYSI\348_URAVNPOVOZR\DEBUG\VC142.IDB
C:\USERS\HP\DESKTOP\PLYSI\348_URAVNPOVOZR\DEBUG\SOURCE.OBJ
