^C:\USERS\HP\DESKTOP\PLYSI\348_URAVNPOVOZR\DEBUG\SOURCE.OBJ
C:\USERS\HP\DESKTOP\PLYSI\348_URAVNPOVOZR\DEBUG\348_URAVNPOVOZR.EXE
C:\USERS\HP\DESKTOP\PLYSI\348_URAVNPOVOZR\DEBUG\348_URAVNPOVOZR.ILK
C:\USERS\HP\DESKTOP\PLYSI\348_URAVNPOVOZR\DEBUG\348_URAVNPOVOZR.PDB
